[
  {
    "model": "auth.group",
    "pk": 1,
    "fields": {
      "name": "Competition Manager Role",
      "permissions": [
        29,
        30,
        31,
        32,
        33,
        34,
        35,
        36,
        37,
        38,
        39,
        40,
        52,
        53,
        54,
        55,
        56
      ]
    }
  },
  {
    "model": "auth.group",
    "pk": 2,
    "fields": {
      "name": "Medical Examination Role",
      "permissions": [
        52,
        61,
        62,
        63,
        64
      ]
    }
  },
  {
    "model": "auth.group",
    "pk": 3,
    "fields": {
      "name": "Treasurer Role",
      "permissions": [
        28,
        41,
        42,
        43,
        44,
        45,
        46,
        47,
        48,
        52,
        57,
        58,
        59,
        60,
        112
      ]
    }
  },
  {
    "model": "auth.group",
    "pk": 4,
    "fields": {
      "name": "HR role",
      "permissions": [
        13,
        14,
        15,
        16,
        28,
        44,
        48,
        49,
        50,
        51,
        52,
        60
      ]
    }
  },
  {
    "model": "auth.group",
    "pk": 5,
    "fields": {
      "name": "Brigade Manager",
      "permissions": [
        52,
        109,
        110,
        111,
        112
      ]
    }
  }
]