[
      {
    "model": "main.BrigadeWork",
    "pk": 1,
    "fields": {
      "year": 2015,
      "swimmerage_type": 0,
      "amount": 2
    }
  },
  {
    "model": "main.BrigadeWork",
    "pk": 2,
    "fields": {
      "year": 2015,
      "swimmerage_type": 1,
      "amount": 2
    }
  },
  {
    "model": "main.BrigadeWork",
    "pk": 3,
    "fields": {
      "year": 2015,
      "swimmerage_type": 2,
      "amount": 2
    }
  },
  {
    "model": "main.BrigadeWork",
    "pk": 4,
    "fields": {
      "year": 2015,
      "swimmerage_type": 3,
      "amount": 2
    }
  },
      {
    "model": "main.BrigadeWork",
    "pk": 5,
    "fields": {
      "year": 2016,
      "swimmerage_type": 0,
      "amount": 2
    }
  },
  {
    "model": "main.BrigadeWork",
    "pk": 6,
    "fields": {
      "year": 2016,
      "swimmerage_type": 1,
      "amount": 2
    }
  },
  {
    "model": "main.BrigadeWork",
    "pk": 7,
    "fields": {
      "year": 2016,
      "swimmerage_type": 2,
      "amount": 2
    }
  },
  {
    "model": "main.BrigadeWork",
    "pk": 8,
    "fields": {
      "year": 2016,
      "swimmerage_type": 3,
      "amount": 2
    }
  },
      {
    "model": "main.BrigadeWork",
    "pk": 9,
    "fields": {
      "year": 2017,
      "swimmerage_type": 0,
      "amount": 2
    }
  },
  {
    "model": "main.BrigadeWork",
    "pk": 10,
    "fields": {
      "year": 2017,
      "swimmerage_type": 1,
      "amount": 2
    }
  },
  {
    "model": "main.BrigadeWork",
    "pk": 11,
    "fields": {
      "year": 2017,
      "swimmerage_type": 2,
      "amount": 2
    }
  },
  {
    "model": "main.BrigadeWork",
    "pk": 12,
    "fields": {
      "year": 2017,
      "swimmerage_type": 3,
      "amount": 2
    }
  },
  {
    "model": "main.BrigadeWork",
    "pk": 13,
    "fields": {
      "year": 2018,
      "swimmerage_type": 0,
      "amount": 2
    }
  },
  {
    "model": "main.BrigadeWork",
    "pk": 14,
    "fields": {
      "year": 2018,
      "swimmerage_type": 1,
      "amount": 2
    }
  },
  {
    "model": "main.BrigadeWork",
    "pk": 15,
    "fields": {
      "year": 2018,
      "swimmerage_type": 2,
      "amount": 2
    }
  },
  {
    "model": "main.BrigadeWork",
    "pk": 16,
    "fields": {
      "year": 2018,
      "swimmerage_type": 3,
      "amount": 2
    }
  },
      {
    "model": "main.BrigadeWork",
    "pk": 17,
    "fields": {
      "year": 2019,
      "swimmerage_type": 0,
      "amount": 2
    }
  },
  {
    "model": "main.BrigadeWork",
    "pk": 18,
    "fields": {
      "year": 2019,
      "swimmerage_type": 1,
      "amount": 2
    }
  },
  {
    "model": "main.BrigadeWork",
    "pk": 19,
    "fields": {
      "year": 2019,
      "swimmerage_type": 2,
      "amount": 2
    }
  },
  {
    "model": "main.BrigadeWork",
    "pk": 20,
    "fields": {
      "year": 2019,
      "swimmerage_type": 3,
      "amount": 2
    }
  },
  {
    "model": "main.BrigadeWork",
    "pk": 21,
    "fields": {
      "year": 2020,
      "swimmerage_type": 0,
      "amount": 2
    }
  },
  {
    "model": "main.BrigadeWork",
    "pk": 22,
    "fields": {
      "year": 2020,
      "swimmerage_type": 1,
      "amount": 2
    }
  },
  {
    "model": "main.BrigadeWork",
    "pk": 23,
    "fields": {
      "year": 2020,
      "swimmerage_type": 2,
      "amount": 2
    }
  },
  {
    "model": "main.BrigadeWork",
    "pk": 24,
    "fields": {
      "year": 2020,
      "swimmerage_type": 3,
      "amount": 2
    }
  },
  {
    "model": "main.BrigadeWork",
    "pk": 25,
    "fields": {
      "year": 2021,
      "swimmerage_type": 0,
      "amount": 2
    }
  },
  {
    "model": "main.BrigadeWork",
    "pk": 26,
    "fields": {
      "year": 2021,
      "swimmerage_type": 1,
      "amount": 2
    }
  },
  {
    "model": "main.BrigadeWork",
    "pk": 27,
    "fields": {
      "year": 2021,
      "swimmerage_type": 2,
      "amount": 2
    }
  },
  {
    "model": "main.BrigadeWork",
    "pk": 28,
    "fields": {
      "year": 2021,
      "swimmerage_type": 3,
      "amount": 2
    }
  },
  {
    "model": "main.BrigadeWork",
    "pk": 29,
    "fields": {
      "year": 2022,
      "swimmerage_type": 0,
      "amount": 2
    }
  },
  {
    "model": "main.BrigadeWork",
    "pk": 30,
    "fields": {
      "year": 2022,
      "swimmerage_type": 1,
      "amount": 2
    }
  },
  {
    "model": "main.BrigadeWork",
    "pk": 31,
    "fields": {
      "year": 2022,
      "swimmerage_type": 2,
      "amount": 2
    }
  },
  {
    "model": "main.BrigadeWork",
    "pk": 32,
    "fields": {
      "year": 2022,
      "swimmerage_type": 3,
      "amount": 2
    }
  },
      {
    "model": "main.BrigadeWork",
    "pk": 33,
    "fields": {
      "year": 2023,
      "swimmerage_type": 0,
      "amount": 2
    }
  },
  {
    "model": "main.BrigadeWork",
    "pk": 34,
    "fields": {
      "year": 2023,
      "swimmerage_type": 1,
      "amount": 2
    }
  },
  {
    "model": "main.BrigadeWork",
    "pk": 35,
    "fields": {
      "year": 2023,
      "swimmerage_type": 2,
      "amount": 0
    }
  },
  {
    "model": "main.BrigadeWork",
    "pk": 36,
    "fields": {
      "year": 2023,
      "swimmerage_type": 3,
      "amount": 0
    }
  }
]
